{
    "server" : {
        "port": 8080
    },
    "ethereum" : {
        "url"     : "ws://127.0.0.1:8545",
        "privkey" : "0xb0057716d5917badaf911b193b12b910811c1497b5bada8d7711f758981c3773",
        "address" : "0xC89Ce4735882C9F0f0FE26686c53074E09B0D550"
    }
}
